{
    "compCode": "08",
    "expDate": "2047-02-01 07:06:29",
    "footer": {
        "en": "<p></p>",
        "zh-Hant": "<p></p>"
    },
    "formulas": {
        "prepareReportData": "function (quotation, planInfo, planDetails, extraPara) {}"
    },
    "header": {
        "en": "<table style=\"width: 100%;\">\n<tbody>\n<tr>\n<td><div class=\"awt-intro-logo\"></div></td>\n<td style=\"float: right; width: 200px;\"></td>\n</tr>\n</tbody>\n</table>\n<p></p>",
        "zh-Hant": "<p></p>"
    },
    "isMasterData": true,
    "lastUpdatedTime": "2018-09-03T09:09:00.177Z",
    "launchDate": "2018-02-01 07:06:09",
    "pdfCode": "AWT_PRODUCT_SUMMARY",
    "pdfName": {
        "en": "AWT Product Summary",
        "zh-Hant": "AWT Product Summary",
        "zh-tw": "AWT Product Summary"
    },
    "releaseDate": "2018-07-26 07:06:09",
    "remarks": {
        "en": "AWT Product Summary"
    },
    "status": "A",
    "style": "",
    "template": {
        "en": [
            "<!-- AWT ACKNOWLEDGEMENT -->\n\n<div style=\"text-align: center; width: 100%; paddingtop: 10px;\"> <strong>ACKNOWLEDGEMENT</strong></div><br/><div class=\"b u\">Presented to:</div><br/><table class=\"w100\"> <xsl:if test=\"*/cover/sameAs='N'\"> <tr> <td class=\"vtop\"> <div class=\"vpd8\">Name of Proposer</div></td><td class=\"vtop\"> <div class=\"vpd8\">: <xsl:value-of select=\"*/cover/proposer/name\"/> </div></td></tr></xsl:if> <tr> <td class=\"vtop\" style=\"width: 25%;\"> <div class=\"vpd8\">Name of Life Assured </div></td><td class=\"vtop\"> <div class=\"vpd8\">: <xsl:value-of select=\"*/cover/insured/name\"/> </div></td></tr></table><div class=\"sectionSpace\"/><div class=\"b u\">Your Plan and Rider(s), if any:</div><xsl:for-each select=\"*/cover/plans\"> <div> <xsl:value-of select=\"name\"/> </div></xsl:for-each><br/><br/><div class=\"b u\">Client(s) Acknowledgement:</div><br/><table class=\"w100\"> <tr> <td class=\"vtop w24p\">1.</td><td class=\"vtop\"> <div>I / We confirm that I / We have received all pages of the Policy Illustration for the basic plan / all rider(s) listed above, where applicable.</div><br/> </td></tr><tr> <td class=\"vtop w24p\">2.</td><td class=\"vtop\"> <div>I / We confirm that I / We have received all pages of the Product Summary for the basic plan and rider(s) listed above, where applicable, and all the Product Highlight Sheet(s) of the selected fund(s) (applicable only to investment-linked plan). </div><br/> </td></tr><tr> <td class=\"vtop w24p\">3.</td><td class=\"vtop\"> <div>The terms and conditions of the policy as set out in the Product Summary and the Product Highlight Sheet(s) have been explained to me / Us and that I / We understand the features of the policy and the applicable fees and charges.</div><br/> </td></tr></table><xsl:if test=\"not(*/mainInfo/quickQuote='Y')\"> <div class=\"footer\"> <div class=\"global_prodSumm\" style=\"position:absolute; bottom: 100px;\"> <div style=\"width: 100%;\"> <table style=\"text-align: left; table-layout: fixed; width: 100%; font-size: 10pt; margin: 0 auto;\"> <tbody> <tr style=\"color: white;\"> <td style=\"padding-left: 50px;\"> <div style=\"border-bottom: solid 1px black; width: 80%;\">ADVISOR_SIGNATURE</div></td><td style=\"padding-left: 50px;\"> <div style=\"border-bottom: solid 1px black; width: 80%;\">PROPOSER_SIGNATURE</div></td></tr><tr> <td style=\"padding-left: 50px; padding-top: 10px;\">Adviser's Signature</td><td style=\"padding-left: 50px; padding-top: 10px;\">Proposer's Signature</td></tr><tr> <td style=\"padding-left: 50px;\">Date:</td><td style=\"padding-left: 50px;\">Date:</td></tr></tbody> </table> </div></div></div></xsl:if>"
        ],
        "zh-Hant": []
    },
    "type": "pdfTemplate",
    "version": 2
}