{
    "allowBackdate": "N",
    "benlim": [
        {
            "ageFr": "6",
            "ageTo": "60",
            "class": "*",
            "country": "*",
            "limits": [
                {
                    "ccy": "SGD",
                    "max": "",
                    "min": 10000,
                    "payMode": "M"
                },
                {
                    "ccy": "SGD",
                    "max": "",
                    "min": 10000,
                    "payMode": "Q"
                },
                {
                    "ccy": "SGD",
                    "max": "",
                    "min": 10000,
                    "payMode": "S"
                },
                {
                    "ccy": "SGD",
                    "max": "",
                    "min": 10000,
                    "payMode": "A"
                }
            ]
        }
    ],
    "budgetRules": [
        "RP"
    ],
    "ccyDesc": {},
    "compCode": "08",
    "corpInd": "N",
    "covCode": "ADBR",
    "covName": {
        "en": "Accidental Death Benefit",
        "zh-Hant": "-"
    },
    "create": "KENNY.CHAN  on 15 Dec 2017 15:23:35",
    "ctyGroup": [
        "*"
    ],
    "currencies": [
        {
            "ccy": [
                "SGD"
            ],
            "country": "*"
        }
    ],
    "dealerGroup": [
        "AGENCY",
        "DIRECT",
        "SINGPOST",
        "BROKER",
        "FUSION",
        "SYNERGY"
    ],
    "effDate": "2017-12-16 00:00:00",
    "entryAge": [
        {
            "country": "*",
            "imaxAge": 60,
            "imaxAgeUnit": "nearestAge",
            "iminAge": 6,
            "iminAgeUnit": "nearestAge",
            "omaxAge": 70,
            "omaxAgeUnit": "nearestAge",
            "ominAge": 18,
            "ominAgeUnit": "nearestAge",
            "sameAsOwner": "N"
        }
    ],
    "expDate": "2118-01-01 00:00:00",
    "formulas": {
        "calcQuotFunc": "",
        "illustrateFunc": "",
        "polTermsFunc": "function (planDetail, quotation) {var polTerm = 65 - quotation.iAge;return [{ value: \"yrs\" + polTerm, title: polTerm + \" Years\", default: true}];}",
        "premFunc": "",
        "premTermsFunc": "function (planDetail, quotation) {var polTerm = 65 - quotation.iAge;return [{ value: \"yrs\" + polTerm, title: polTerm +\" Years\"}];}",
        "prepareClassConfig": "",
        "prepareSAPremConfig": "function (planDetail, quotation, planDetails) {quotDriver.prepareAmountConfig(planDetail, quotation, planDetails); planDetail.inputConfig.canEditSumAssured = true; planDetail.inputConfig.canViewSumAssured = true; planDetail.inputConfig.canViewPremium = false; let basicSaMax = _.get(quotation, 'plans[0].sumInsured', 0) * 10; planDetail.inputConfig.benlim = { min: 10000, max: basicSaMax > 10000 ? math.min(basicSaMax, 500000) : 500000 }; planDetail.inputConfig.saInput.factor = 100; return planDetail;}",
        "prepareTermConfig": "",
        "saFunc": "",
        "validAfterCalcFunc": "function (quotation, planInfo, planDetail) {quotValid.validatePlanAfterCalc(quotation, planInfo, planDetail);planInfo.planCode = 'ADBR' + quotation.policyOptions.occupationClass;planInfo.premTerm = planInfo.policyTerm;planInfo.premTermDesc = planInfo.polTermDesc;if(planInfo.policyTerm){ planInfo.policyTermYr = math.number(planInfo.policyTerm.substring(3, planInfo.policyTerm.length)); planInfo.premTermYr = math.number(planInfo.policyTermYr);}}",
        "validBeforeCalcFunc": "",
        "validQuotFunc": "",
        "willValidQuotFunc": ""
    },
    "genderInd": "*",
    "insuredAgeDesc": {},
    "jointLives": "N",
    "keyProdFeatures": {
        "en": "-"
    },
    "licence": [
        ""
    ],
    "payMethodsDesc": {},
    "payModeDesc": {},
    "payModes": [
        {
            "covMonth": 1,
            "default": "",
            "factor": 12,
            "mode": "M",
            "operator": "D"
        },
        {
            "covMonth": 3,
            "default": "",
            "factor": 4,
            "mode": "Q",
            "operator": "D"
        },
        {
            "covMonth": 6,
            "default": "",
            "factor": 2,
            "mode": "S",
            "operator": "D"
        },
        {
            "covMonth": 12,
            "default": "",
            "factor": 1,
            "mode": "A",
            "operator": "D"
        }
    ],
    "paymentMethods": [
        "crCard",
        "chequeCashierOrder",
        "eNets",
        "cash",
        "dbsCrCardIpp",
        "axasam",
        "teleTransfter"
    ],
    "planCodeMapping": {
        "occupation": [
            "1",
            "2",
            "3",
            "4"
        ],
        "planCode": [
            "ADBR1",
            "ADBR2",
            "ADBR3",
            "ADBR4"
        ]
    },
    "planInd": "R",
    "polMatSameAsPremMat": "N",
    "polMaturities": [],
    "polTermDesc": {},
    "polTermInd": "Y",
    "polTermRule": "na",
    "policyMatSameAsBasic": "N",
    "premMatSameAsBasic": "N",
    "premMatSameAsPolMat": "N",
    "premMaturities": [],
    "premTermDesc": {},
    "premTermInd": "N",
    "premTermRule": "BT",
    "prodFeature": {},
    "prod_summary_1": 808276,
    "productCategory": "ilp",
    "productLine": "IL",
    "ref_no": "ADBR",
    "releaseDate": "2018-06-21 18:29:25",
    "remarks": {
        "en": "-"
    },
    "saDesc": {},
    "saInput": [
        {
            "ccy": "SGD",
            "decimal": 0,
            "factor": 0
        }
    ],
    "saInputInd": "Y",
    "saPostfix": {},
    "saRule": "na",
    "saScale": "",
    "saViewInd": "Y",
    "smokeInd": "*",
    "status": "A",
    "task_desc": "Accidental Death Benefit",
    "type": "product",
    "upd": "KENNY.CHAN  on 25 Jan 2018 18:50:40",
    "version": 2,
    "wholeLifeInd": "N"
}