{
    "allowBackdate": "N",
    "benlim": [
        {
            "ageFr": "0",
            "ageTo": "70",
            "class": "*",
            "country": "*",
            "limits": [
                {
                    "ccy": "SGD",
                    "max": 500,
                    "min": 50,
                    "payMode": "A"
                },
                {
                    "ccy": "SGD",
                    "max": 500,
                    "min": 50,
                    "payMode": "S"
                },
                {
                    "ccy": "SGD",
                    "max": 500,
                    "min": 50,
                    "payMode": "Q"
                },
                {
                    "ccy": "SGD",
                    "max": 500,
                    "min": 50,
                    "payMode": "M"
                }
            ]
        }
    ],
    "budgetRules": [
        "RP"
    ],
    "ccyDesc": {
        "en": "SGD"
    },
    "classInd": "N",
    "classSecDesc": {
        "en": "-"
    },
    "compCode": "08",
    "corpInd": "N",
    "covCode": "WIR",
    "covName": {
        "en": "Weekly Indemnity",
        "zh-Hant": "Weekly Indemnity"
    },
    "create": "Wenny Tang  on 25 Aug 2017 18:57:43",
    "ctyGroup": [
        "*"
    ],
    "currencies": [
        {
            "ccy": [
                "SGD"
            ],
            "country": "*"
        }
    ],
    "dealerGroup": [
        "AGENCY",
        "SYNERGY",
        "SINGPOST",
        "DIRECT",
        "BROKER",
        "FUSION"
    ],
    "effDate": "2017-08-01 00:00:00",
    "entryAge": [
        {
            "country": "*",
            "imaxAge": 70,
            "imaxAgeUnit": "nearestAge",
            "iminAge": 15,
            "iminAgeUnit": "day",
            "omaxAge": 70,
            "omaxAgeUnit": "nearestAge",
            "ominAge": 18,
            "ominAgeUnit": "year",
            "sameAsOwner": ""
        }
    ],
    "expDate": "2018-08-25 18:32:40",
    "formulas": {
        "calcQuotFunc": "",
        "getOccupationClass": "function (quotation, planDetail) { var oCls = quotation.plans[0].covClass; if (oCls) { oCls = parseInt(oCls, 10); if (oCls) return oCls - 1; } return 0;}",
        "illustrateFunc": "",
        "polTermsFunc": "",
        "premFunc": "function (quotation, planInfo, planDetail) { var ocls = runFunc(planDetail.formulas.getOccupationClass, quotation, planDetail); if (planDetail.rates.premRate.rates[ocls]) { var rate = parseFloat(planDetail.rates.premRate.rates[ocls]); var scale = parseFloat(planDetail.saScale); for(var i = 0; i< quotation.plans.length; i++){ var plan = quotation.plans[i]; if(plan.covCode == planInfo.covCode){ plan.premRate = rate; break; } } var prem = math.divide(math.multiply(math.bignumber(planInfo.sumInsured), rate), scale); var payModes = planDetail.payModes; for (var i = 0; i < payModes.length; i++) { let { mode, factor, operator } = payModes[i]; if (quotation.paymentMode == mode) { if (operator == 'M') { prem = math.multiply(prem, factor); } else if (operator == 'D') { prem = math.divide(prem, factor); } break; } } return math.number(prem); } else { return 0; }}",
        "premTermsFunc": "",
        "prepareClassConfig": "",
        "prepareSAPremConfig": "function (planDetail, quotation, planDetails) { quotDriver.prepareAmountConfig(planDetail, quotation, planDetails); if (quotation.plans && quotation.plans[0].sumInsured && planDetail.inputConfig.benlim.max > (quotation.plans[0].sumInsured * 0.005)) { planDetail.inputConfig.benlim.max = math.multiply(quotation.plans[0].sumInsured, 0.005); }}",
        "prepareTermConfig": "",
        "saFunc": "",
        "validAfterCalcFunc": "function (quotation, planInfo, planDetail) { quotValid.validatePlanAfterCalc(quotation, planInfo, planDetail); if (planDetail.gstInd == \"Y\") { planInfo.tax = { yearTax: math.number(math.round(math.multiply(math.bignumber(planInfo.yearPrem), planDetail.gstRate), 2)), halfYearTax: math.number(math.round(math.multiply(math.bignumber(planInfo.halfYearPrem), planDetail.gstRate), 2)), quarterTax: math.number(math.round(math.multiply(math.bignumber(planInfo.quarterPrem), planDetail.gstRate), 2)), monthTax: math.number(math.round(math.multiply(math.bignumber(planInfo.monthPrem), planDetail.gstRate), 2)) }; }}",
        "validBeforeCalcFunc": "",
        "validQuotFunc": "",
        "willValidQuotFunc": ""
    },
    "genderInd": "*",
    "insuredAgeDesc": {
        "en": "15 -- 75"
    },
    "jointLives": "N",
    "keyProdFeatures": {
        "en": "-"
    },
    "levelPrem": {
        "en": "-"
    },
    "licence": [
        ""
    ],
    "payMethodsDesc": {
        "en": "-"
    },
    "payModeDesc": {
        "en": "-"
    },
    "payModes": [
        {
            "covMonth": 12,
            "default": "Y",
            "factor": 1,
            "mode": "A",
            "operator": "M"
        },
        {
            "covMonth": 6,
            "default": "",
            "factor": 0.51,
            "mode": "S",
            "operator": "M"
        },
        {
            "covMonth": 3,
            "default": "",
            "factor": 0.26,
            "mode": "Q",
            "operator": "M"
        },
        {
            "covMonth": 1,
            "default": "",
            "factor": 0.0875,
            "mode": "M",
            "operator": "M"
        }
    ],
    "paymentMethods": [
        "crCard",
        "axasam",
        "eNets",
        "dbsCrCardIpp",
        "cash",
        "chequeCashierOrder",
        "teleTransfter"
    ],
    "planInd": "R",
    "polMatSameAsPremMat": "N",
    "polTermDesc": {
        "en": "-"
    },
    "polTermInd": "N",
    "polTermRule": "na",
    "policyMatSameAsBasic": "Y",
    "premInput": [
        {
            "ccy": "SGD",
            "decimal": 2,
            "factor": 0
        }
    ],
    "premInputInd": "N",
    "premMatSameAsBasic": "Y",
    "premMatSameAsPolMat": "N",
    "premTermDesc": {
        "en": "-"
    },
    "premTermInd": "N",
    "premTermRule": "na",
    "premType": "L",
    "prodFeature": {
        "en": "We will pay 100% of Your selected benefit should the Life Assured suffer Temporary Total Disablement and 25% of Your selected benefit should the Life Assured suffer Temporary Partial Disablement up to a maximum period of fifty-two (52) consecutive weeks."
    },
    "productCategory": "cv",
    "productLine": "AP",
    "rates": {
        "premRate": {
            "rates": [
                37.4,
                41.15,
                44.9,
                0
            ]
        }
    },
    "ref_no": "BAA Rider - WI",
    "releaseDate": "2018-03-21 16:25:25",
    "remarks": {
        "en": "-"
    },
    "saDesc": {
        "en": "50 - 500 @50"
    },
    "saInput": [
        {
            "ccy": "SGD",
            "decimal": 0,
            "factor": 50
        }
    ],
    "saInputInd": "Y",
    "saPostfix": {
        "en": "per week"
    },
    "saRule": "0",
    "saScale": 50,
    "saSecDesc": {
        "en": "-"
    },
    "saViewInd": "Y",
    "smokeInd": "*",
    "status": "A",
    "task_desc": "BAA Rider - Weekly Indemnity",
    "type": "product",
    "upd": "Wenny Tang  on 26 Aug 2017 13:36:14",
    "version": 1,
    "wholeLifeInd": "N"
}