{
	"prod__startTime": "2018-07-15T16:00:00.000Z",
	"prod__endTime": "2018-10-04T15:59:59.999Z",
	"startTime": "2018-07-17T16:00:00.000Z",
  	"endTime": "2019-05-31T15:59:59.999Z",
  	"groupTitle": "",
	"messageId": "campaign_TERM18_1_MSG",
	"messagePriorityInAlertBox": 2,
	"messageGroup": "campaignMsg",
	"groupPriority": 2,
	"messageMapping" :{
		"JSON": [
			{
				"from": "startTime",
				"to": "{{{startDate}}}",
				"format": "DATE"
			}
		]
	},
	"message": "Term Protector Premium discount campaign: {{{startDate}}}",
	"campaignCode": "TERM18",
	"campaignId": "campaign_TERM18_1",
	"impactedPlan": {
		"TPX":[
			{
				"discount": 0.1
			}
		],

		"TPPX":[
			{
				"discount": 0.1
			}
		],

		"DIS":[
			{
				"discount": 0.15
			}
		],

		"CRX":[
			{
				"discount": 0.15
			}
		]
	},
	"type": "campaign"
}
