{
  "id": "financialConsultantRecommendation_shield",
  "items": [
    {
      "planList": ["ASIMSA", "ASPA", "ASGC", "ASHCD"],
      "benefits": {
        "en": "EAB Shield Plan A with EAB Basic Care, EAB General Care and EAB Home Care: 1) Reimburses eligible expenses in private hospital standard rooms 2) 365 days of post-hospitalisation coverage 3) Covers Deductibles and Co-Insurance 4) Provides Daily Hospital Cash Incentive of up to $250 if the Life Assured stays in a four-bedded or lower ward class in public hospital 5) Covers Traditional Chinese Medicine treatment, certain planned overseas medical treatments, emergency outpatient treatments due to an accident, outpatient treatments for fractures, dislocations, sports injuries, food poisoning, dengue and Hand Foot and Mouth Disease 6)  Covers home nursing, home care medical services, GP home visits, and purchase or rental of mobility aids(within 30 days of post hospitalisation), Inpatient Hospice Care Daily Reimbursement(up to 90 days per Policy Year). You can decide within 21 days from the date of receipt of the Policy whether You want to continue with Your Policy.  If You do not want to continue, You may cancel this Policy by giving us written notice and We shall refund the Premiums paid for this Policy."
      },
      "limitations": {
        "en": "EAB Shield Plan A with EAB Basic Care, EAB General Care and EAB Home Care: 1) Premiums are not guaranteed 2) Premiums increase with age band 3) The additional private insurance coverage portion of EAB Shield premium in excess of the AWL is not payable via Medisave 4) Does not cover medical treatment outside of Singapore, except in the case of emergency, or certain planned medical treatments (as stated in the EAB General Care Supplementary Provisions). 5) Pro-ration Factors will apply if Life Assured is Hospitalized in a higher class ward than the Hospital class ward entitled under your policy. \n\nThe plan does not cover treatment for congenital abnormalities such as, but not limited to genetics, hereditary conditions and physical or birth defects from childbirth, and first diagnosed by a Physician or signs and symptoms were first presented within 365 days from the Effective Date or last Reinstatement Date.\n\nYou have bought the Basic Care Rider (no copay).\nIn line with the Ministry of Health guidelines issued on 8 Mar 2018, you will have to transit to a rider with co-payment of 5% (or more) from 1 April 2021 upon policy renewal. You also have the option to transit to a rider with co-payment earlier when it is available from 1 April 2019 upon policy renewal."
      },
      "additionalLimitations": {
        "en": "Does not cover treatment for congenital abnormalities such as, but not limited to genetics, hereditary conditions and physical or birth defects from childbirth, and first diagnosed by a Physician or signs and symptoms were first presented within 365 days from the Effective Date or last Reinstatement Date."

      }
    },
    {
      "planList": ["ASIMSA", "ASPA", "ASGC"],
      "benefits": {
        "en": "EAB Shield Plan A with EAB Basic Care and EAB General Care: 1) Reimburses eligible expenses in private hospital standard rooms 2) 365 days of post-hospitalisation coverage 3) Covers Deductibles and Co-Insurance 4) Provides Daily Hospital Cash Incentive of up to $250 if the Life Assured stays in a four-bedded or lower ward class in public hospital 5) Covers Traditional Chinese Medicine treatment, certain planned overseas medical treatments, emergency outpatient treatments due to accident, outpatient treatments for fractures, dislocations, sports injuries, food poisoning, dengue and Hand Foot and Mouth Disease. You can decide within 21 days from the date of receipt of the Policy whether You want to continue with Your Policy.  If You do not want to continue, You may cancel this Policy by giving us written notice and We shall refund the Premiums paid for this Policy."
      },
      "limitations": {
        "en": "EAB Shield Plan A with EAB Basic Care and EAB General Care: 1) Premiums are not guaranteed 2) Premiums increase with age band 3) The additional private insurance coverage portion of EAB Shield premium in excess of the AWL is not payable via Medisave 4) Does not cover medical treatment outside of Singapore, except in the case of emergency, or certain planned medical treatments (as stated in the EAB General Care Supplementary Provisions). 5)Pro-ration Factors will apply if Life Assured is Hospitalized in a higher class ward than the Hospital class ward entitled under your policy.\n\nThe plan does not cover treatment for congenital abnormalities such as, but not limited to genetics, hereditary conditions and physical or birth defects from childbirth, and first diagnosed by a Physician or signs and symptoms were first presented within 365 days from the Effective Date or last Reinstatement Date.\n\nYou have bought the Basic Care Rider (no copay).\nIn line with the Ministry of Health guidelines issued on 8 Mar 2018, you will have to transit to a rider with co-payment of 5% (or more) from 1 April 2021 upon policy renewal. You also have the option to transit to a rider with co-payment earlier when it is available from 1 April 2019 upon policy renewal."
      },
      "additionalLimitations": {
        "en": "Does not cover treatment for congenital abnormalities such as, but not limited to genetics, hereditary conditions and physical or birth defects from childbirth, and first diagnosed by a Physician or signs and symptoms were first presented within 365 days from the Effective Date or last Reinstatement Date."
      }
    },
    {
      "planList": ["ASIMSA", "ASPA", "ASHC"],
      "benefits": {
        "en": "EAB Shield Plan A with EAB Basic Care and EAB Home Care: 1) Reimburses eligible expenses in private hospital standard rooms 2) 365 days of post-hospitalisation coverage 3) Covers Deductibles and Co-Insurance 4) Covers home nursing, home care medical services, GP home visits, and purchase or rental or mobility aids(within 30 days of post hospitalisation), Inpatient Hospice Care Daily Reimbursement(up to 90 days per Policy Year).  You can decide within 21 days from the date of receipt of the Policy whether You want to continue with Your Policy.  If You do not want to continue, You may cancel this Policy by giving us written notice and We shall refund the Premiums paid for this Policy."
      },
      "limitations": {
        "en": "EAB Shield Plan A with EAB Basic Care and EAB Home Care: 1) Premiums are not guaranteed 2) Premiums increase with age band 3) The additional private insurance coverage portion of EAB Shield premium in excess of the AWL is not payable via Medisave 4) Does not cover medical treatment outside of Singapore, except in the case of emergency, or certain planned medical treatments (as stated under the additional benefits of your EAB Shield Policy). 5) Pro-ration Factors will apply if Life Assured is Hospitalized in a higher class ward than the Hospital class ward entitled under your policy.\n\nThis plan does not cover treatment for congenital abnormalities such as, but not limited to genetics, hereditary conditions and physical or birth defects from childbirth, and first diagnosed by a Physician or signs and symptoms were first presented within 365 days from the Effective Date or last Reinstatement Date.\n\nYou have bought the Basic Care Rider (no copay).\nIn line with the Ministry of Health guidelines issued on 8 Mar 2018, you will have to transit to a rider with co-payment of 5% (or more) from 1 April 2021 upon policy renewal. You also have the option to transit to a rider with co-payment earlier when it is available from 1 April 2019 upon policy renewal."
      },
      "additionalLimitations": {
        "en": "Does not cover treatment for congenital abnormalities such as, but not limited to genetics, hereditary conditions and physical or birth defects from childbirth, and first diagnosed by a Physician or signs and symptoms were first presented within 365 days from the Effective Date or last Reinstatement Date."
      }
    },
    {
      "planList": ["ASIMSA", "ASPA"],
      "benefits": {
        "en": "EAB Shield Plan A with EAB Basic Care: 1) Reimburses eligible expenses in private hospital standard rooms 2) 365 days of post-hospitalisation coverage 3) Covers Deductibles and Co-Insurance.  You can decide within 21 days from the date of receipt of the Policy whether You want to continue with Your Policy.  If You do not want to continue, You may cancel this Policy by giving us written notice and We shall refund the Premiums paid for this Policy."
      },
      "limitations": {
        "en": "EAB Shield Plan A with EAB Basic Care: 1) Premiums are not guaranteed 2) Premiums increase with age band 3) The additional private insurance coverage portion of EAB Shield premium in excess of the AWL is not payable via Medisave 4) Does not cover medical treatment outside of Singapore, except in the case of emergency, or certain planned medical treatments (as stated under the additional benefits of your EAB Shield Policy). 5) Pro-ration Factors will apply if Life Assured is Hospitalized in a higher class ward than the Hospital class ward entitled under your policy.\n\nThis plan does not cover treatment for congenital abnormalities such as, but not limited to genetics, hereditary conditions and physical or birth defects from childbirth, and first diagnosed by a Physician or signs and symptoms were first presented within 365 days from the Effective Date or last Reinstatement Date.\n\nYou have bought the Basic Care Rider (no copay).\nIn line with the Ministry of Health guidelines issued on 8 Mar 2018, you will have to transit to a rider with co-payment of 5% (or more) from 1 April 2021 upon policy renewal. You also have the option to transit to a rider with co-payment earlier when it is available from 1 April 2019 upon policy renewal."
      },
      "additionalLimitations": {
        "en": "Does not cover treatment for congenital abnormalities such as, but not limited to genetics, hereditary conditions and physical or birth defects from childbirth, and first diagnosed by a Physician or signs and symptoms were first presented within 365 days from the Effective Date or last Reinstatement Date."
      }
    },
    {
      "planList": ["ASIMSA"],
      "benefits": {
        "en": "EAB Shield Plan A will reimburse eligible expenses in private hospital standard rooms. For full information on the benefits and coverage, please refer to the product summary. \nFree-look period: You can decide within 21 days from the date of receipt of the Policy document, whether You want to continue with the Policy. If You do not want to continue, You may cancel this Policy by giving EAB written notice and EAB shall refund the Premiums paid for this Policy. \n \n If the Policy terminates because You have not paid the Premium by the end of the Grace Period, You may apply to EAB in writing within 60 days from the date of notice of termination to reinstate Your Policy."
      },
      "limitations": {
        "en": "EAB Shield Plan A: 1) Premiums are not guaranteed 2) Premiums increase with age band 3) The additional private insurance coverage portion of EAB Shield premium in excess of the AWL is not payable via Medisave 4) Does not cover Deductibles and Co-Insurance 5) Does not cover medical treatment outside of Singapore, except in the case of emergency (as stated under the additional benefits of your EAB Shield Policy). 6) Pro-ration Factors will apply if Life Assured is Hospitalized in a higher class ward than the Hospital class ward entitled under your policy.\n\nThis plan does not cover Pre-existing condition(s), treatment for congenital abnormalities such as, but not limited to genetics, hereditary conditions and physical or birth defects from childbirth, and first diagnosed by a Physician or signs and symptoms were first presented within 365 days from the Effective Date or last Reinstatement Date. Details of the general exclusions can be found in the Product Summary."
      },
      "additionalLimitations": {
        "en": ""
      }
    },
    {
      "planList": ["ASIMSB", "ASPB", "ASGCB", "ASHCD"],
      "benefits": {
        "en": "EAB Shield Plan B with EAB Basic Care, EAB General Care and EAB Home Care: 1) Reimburses eligible expenses in single-bedded wards in restructured (public) hospitals 2) 365 days of post-hospitalisation coverage 3) Covers Deductibles and Co-Insurance 4) Provides Daily Hospital Cash Incentive of $100 if the Life Assured stays in a four-bedded ward class in a public hospital, and $150 for six-bedded or lower ward class in a public hospital 5) Covers Traditional Chinese Medicine treatment, certain planned overseas medical treatments, emergency outpatient treatments due to an accident, outpatient treatments for fractures, dislocations, sports injuries, food poisoning, dengue and Hand Foot and Mouth Disease 6)  Covers home nursing, home care medical services, GP home visits, and purchase or rental or mobility aids(within 30 days of post hospitalisation), Inpatient Hospice Care Daily Reimbursement(up to 90 days per Policy Year). You can decide within 21 days from the date of receipt of the Policy whether You want to continue with Your Policy.  If You do not want to continue, You may cancel this Policy by giving us written notice and We shall refund the Premiums paid for this Policy."
      },
      "limitations": {
        "en": "EAB Shield Plan B with EAB Basic Care, EAB General Care and EAB Home Care: 1) Premiums are not guaranteed 2) Premiums increase with age band 3) The additional private insurance coverage portion of EAB Shield premium in excess of the AWL is not payable via Medisave 4) Does not cover medical treatment outside of Singapore, except in the case of emergency, or certain planned medical treatments (as stated in the EAB General Care Supplementary Provisions) 5) Pro-ration Factors will apply if Life Assured is Hospitalized in a higher class ward than the Hospital class ward entitled under your policy.\n\nThe plan does not cover treatment for congenital abnormalities such as, but not limited to genetics, hereditary conditions and physical or birth defects from childbirth, and first diagnosed by a Physician or signs and symptoms were first presented within 365 days from the Effective Date or last Reinstatement Date.\n\nYou have bought the Basic Care Rider (no copay).\nIn line with the Ministry of Health guidelines issued on 8 Mar 2018, you will have to transit to a rider with co-payment of 5% (or more) from 1 April 2021 upon policy renewal. You also have the option to transit to a rider with co-payment earlier when it is available from 1 April 2019 upon policy renewal."
      },
      "additionalLimitations": {
        "en": "Does not cover treatment for congenital abnormalities such as, but not limited to genetics, hereditary conditions and physical or birth defects from childbirth, and first diagnosed by a Physician or signs and symptoms were first presented within 365 days from the Effective Date or last Reinstatement Date."
      }
    },
    {
      "planList": ["ASIMSB", "ASPB", "ASGCB"],
      "benefits": {
        "en": "EAB Shield Plan B with EAB Basic Care and EAB General Care: 1) Reimburses eligible expenses in single-bedded wards in restructured (public) hospitals 2) 365 days of post-hospitalisation coverage 3) Covers Deductibles and Co-Insurance 4) Provides Daily Hospital Cash Incentive of $100 if the Life Assured stays in a four-bedded ward class in a public hospital, and $150 for six-bedded or lower ward class in a public hospital 5) Covers Traditional Chinese Medicine treatment, certain planned overseas medical treatments, emergency outpatient treatments due to accident, outpatient treatments for fractures, dislocations, sports injuries, food poisoning, dengue and Hand Foot and Mouth Disease.  You can decide within 21 days from the date of receipt of the Policy whether You want to continue with Your Policy.  If You do not want to continue, You may cancel this Policy by giving us written notice and We shall refund the Premiums paid for this Policy."
      },
      "limitations": {
        "en": "EAB Shield Plan B with EAB Basic Care and EAB General Care: 1) Premiums are not guaranteed 2) Premiums increase with age band 3) The additional private insurance coverage portion of EAB Shield premium in excess of the AWL is not payable via Medisave 4) Does not cover medical treatment outside of Singapore, except in the case of emergency, or certain planned medical treatments (as stated in the EAB General Care Supplementary Provisions). 5) Pro-ration Factors will apply if Life Assured is Hospitalized in a higher class ward than the Hospital class ward entitled under your policy.\n\nThis plan does not cover treatment for congenital abnormalities such as, but not limited to genetics, hereditary conditions and physical or birth defects from childbirth, and first diagnosed by a Physician or signs and symptoms were first presented within 365 days from the Effective Date or last Reinstatement Date.\n\nYou have bought the Basic Care Rider (no copay).\nIn line with the Ministry of Health guidelines issued on 8 Mar 2018, you will have to transit to a rider with co-payment of 5% (or more) from 1 April 2021 upon policy renewal. You also have the option to transit to a rider with co-payment earlier when it is available from 1 April 2019 upon policy renewal."
      },
      "additionalLimitations": {
        "en": "Does not cover treatment for congenital abnormalities such as, but not limited to genetics, hereditary conditions and physical or birth defects from childbirth, and first diagnosed by a Physician or signs and symptoms were first presented within 365 days from the Effective Date or last Reinstatement Date."
      }
    },
    {
      "planList": ["ASIMSB", "ASPB", "ASHC"],
      "benefits": {
        "en": "EAB Shield Plan B with EAB Basic Care and EAB Home Care: 1) Reimburses eligible expenses in single-bedded wards in restructured (public) hospitals 2) 365 days of post-hospitalisation coverage 3) Covers Deductibles and Co-Insurance 4) Covers home nursing, home care medical services, GP home visits, and purchase or rental of mobility aids(within 30 days of post hospitalisation), Inpatient Hospice Care Daily Reimbursement(up to 90 days per Policy Year).  You can decide within 21 days from the date of receipt of the Policy whether You want to continue with Your Policy.  If You do not want to continue, You may cancel this Policy by giving us written notice and We shall refund the Premiums paid for this Policy."
      },
      "limitations": {
        "en": "EAB Shield Plan B with EAB Basic Care and EAB Home Care: 1) Premiums are not guaranteed 2) Premiums increase with age band 3) The additional private insurance coverage portion of EAB Shield premium in excess of the AWL is not payable via Medisave 4) Does not cover medical treatment outside of Singapore, except in the case of emergency, or certain planned medical treatments (as stated under the additional benefits of your EAB Shield Policy). 5) Pro-ration Factors will apply if Life Assured is Hospitalized in a higher class ward than the Hospital class ward entitled under your policy.\n\nThis plan does not cover treatment for congenital abnormalities such as, but not limited to genetics, hereditary conditions and physical or birth defects from childbirth, and first diagnosed by a Physician or signs and symptoms were first presented within 365 days from the Effective Date or last Reinstatement Date.\n\nYou have bought the Basic Care Rider (no copay).\nIn line with the Ministry of Health guidelines issued on 8 Mar 2018, you will have to transit to a rider with co-payment of 5% (or more) from 1 April 2021 upon policy renewal. You also have the option to transit to a rider with co-payment earlier when it is available from 1 April 2019 upon policy renewal."
      },
      "additionalLimitations": {
        "en": "Does not cover treatment for congenital abnormalities such as, but not limited to genetics, hereditary conditions and physical or birth defects from childbirth, and first diagnosed by a Physician or signs and symptoms were first presented within 365 days from the Effective Date or last Reinstatement Date."
      }
    },
    {
      "planList": ["ASIMSB", "ASPB"],
      "benefits": {
        "en": "EAB Shield Plan B with EAB Basic Care: 1) Reimburses eligible expenses in single-bedded wards in restructured (public) hospitals 2) 365 days of post-hospitalisation coverage 3) Covers Deductibles and Co-Insurance.  You can decide within 21 days from the date of receipt of the Policy whether You want to continue with Your Policy.  If You do not want to continue, You may cancel this Policy by giving us written notice and We shall refund the Premiums paid for this Policy."
      },
      "limitations": {
        "en": "EAB Shield Plan B with EAB Basic Care: 1) Premiums are not guaranteed 2) Premiums increase with age band 3) The additional private insurance coverage portion of EAB Shield premium in excess of the AWL is not payable via Medisave 4) Does not cover medical treatment outside of Singapore, except in the case of emergency, or certain planned medical treatments (as stated under the additional benefits of your EAB Shield Policy). 5) Pro-ration Factors will apply if Life Assured is Hospitalized in a higher class ward than the Hospital class ward entitled under your policy.\n\nThis plan does not cover treatment for congenital abnormalities such as, but not limited to genetics, hereditary conditions and physical or birth defects from childbirth, and first diagnosed by a Physician or signs and symptoms were first presented within 365 days from the Effective Date or last Reinstatement Date.\n\nYou have bought the Basic Care Rider (no copay).\nIn line with the Ministry of Health guidelines issued on 8 Mar 2018, you will have to transit to a rider with co-payment of 5% (or more) from 1 April 2021 upon policy renewal. You also have the option to transit to a rider with co-payment earlier when it is available from 1 April 2019 upon policy renewal."
      },
      "additionalLimitations": {
        "en": "Does not cover treatment for congenital abnormalities such as, but not limited to genetics, hereditary conditions and physical or birth defects from childbirth, and first diagnosed by a Physician or signs and symptoms were first presented within 365 days from the Effective Date or last Reinstatement Date."
      }
    },
    {
      "planList": ["ASIMSB"],
      "benefits": {
        "en": "EAB Shield Plan B will reimburse eligible expenses in single-bedded wards in restructured (public) hospitals. For full information on the benefits and coverage, please refer to the product summary. \n Free-look period: You can decide within 21 days from the date of receipt of the Policy document, whether You want to continue with the Policy.  If You do not want to continue, You may cancel this Policy by giving EAB written notice and EAB shall refund the Premiums paid for this Policy. \n \n If the Policy terminates because You have not paid the Premium by the end of the Grace Period, You may apply to EAB in writing within 60 days from the date of notice of termination to reinstate Your Policy."
      },
      "limitations": {
        "en": "EAB Shield Plan B: 1) Premiums are not guaranteed 2) Premiums increase with age band 3) The additional private insurance coverage portion of EAB Shield premium in excess of the AWL is not payable via Medisave 4) Does not cover Deductibles and Co-Insurance 5) Does not cover medical treatment outside of Singapore, except in the case of emergency (as stated under the additional benefits of your EAB Shield Policy). 6) Pro-ration Factors will apply if Life Assured is Hospitalized in a higher class ward than the Hospital class ward entitled under your policy. \n\n This plan does not cover Pre-existing condition(s), treatment for congenital abnormalities such as, but not limited to genetics, hereditary conditions and physical or birth defects from childbirth, and first diagnosed by a Physician or signs and symptoms were first presented within 365 days from the Effective Date or last Reinstatement Date. Details of the general exclusions can be found in the Product Summary."
      },
      "additionalLimitations": {
        "en": ""
      }
    },
    {
      "planList": ["ASIMSC"],
      "benefits": {
        "en": "EAB Shield Standard Plan will reimburse eligible expenses in Class B1 wards and below in restructured (public) hospitals. For full information on the benefits and coverage, please refer to the product summary.\n\nFree-look period: You can decide within 21 days from the date of receipt of the Policy whether You want to continue with Your Policy. If You do not want to continue, You may cancel this Policy by giving EAB written notice and EAB shall refund the Premiums paid for this Policy. \n\nIf the Policy terminates because You have not paid the Premium by the end of the Grace Period, You may apply to EAB in writing within 60 days from the date of notice of termination to reinstate Your Policy."
      },
      "limitations": {
        "en": "EAB Shield Standard Plan: 1) Premiums are not guaranteed 2) Premiums increase with age band 3) The additional private insurance coverage portion of EAB Shield premium in excess of the AWL is not payable via Medisave 4) Does not cover Deductibles and Co-Insurance 5) Does not cover medical treatment or Hospitalization outside of Singapore 6) Pro-ration Factors will apply if Life Assured is Hospitalized in a higher class ward than the Hospital class ward entitled under your policy.\n\nThis plan does not cover Pre-existing condition(s), treatment for congenital abnormalities such as, but not limited to genetics, hereditary conditions and physical or birth defects from childbirth. Details of the general exclusions can be found in the Product Summary."
      },
      "additionalLimitations": {
        "en": ""
      }
    },
    {
      "planList": ["ASIMSC", "ASPC"],
      "benefits": {
        "en": "EAB Shield Standard Plan with EAB Basic Care: 1) Reimburses eligible expenses in class B1 and below wards in restructured (public) hospitals 2) Covers Deductibles and Co-Insurance.  You can decide within 21 days from the date of receipt of the Policy whether You want to continue with Your Policy.  If You do not want to continue, You may cancel this Policy by giving us written notice and We shall refund the Premiums paid for this Policy."
      },
      "limitations": {
        "en": "EAB Shield Standard Plan with EAB Basic Care: 1) Premiums are not guaranteed 2) Premiums increase with age band 3) The additional private insurance coverage portion of EAB Shield premium in excess of the AWL is not payable via Medisave 4) Does not cover medical treatment or Hospitalization outside of Singapore.  5)Pro-ration Factors will apply if Life Assured is Hospitalized in a higher class ward than the Hospital class ward entitled under your policy.\n\nThis plan does not cover Treatment for congenital abnormalities such as, but not limited to genetics, hereditary conditions and physical or birth defects from childbirth.\n\nYou have bought the Basic Care Rider (no copay).\nIn line with the Ministry of Health guidelines issued on 8 Mar 2018, you will have to transit to a rider with co-payment of 5% (or more) from 1 April 2021 upon policy renewal. You also have the option to transit to a rider with co-payment earlier when it is available from 1 April 2019 upon policy renewal."
      },
      "additionalLimitations": {
        "en": "Does not cover Treatment for congenital abnormalities such as, but not limited to genetics, hereditary conditions and physical or birth defects from childbirth."
      }
    },
    {
      "planList": ["ASIMSA", "ASCPA"],
      "benefits": {
        "en": "EAB Shield Plan A will reimburse eligible expenses in private hospital standard rooms. With the EAB Enhanced Care, the Deductible and Co-Insurance portion of your EAB Shield policy will be reduced. The Deductible (limited to a maximum of $1,500) and Co-insurance (limited to 5% of the eligible expenses) are together known as Co-payment.  The EAB Enhanced Care has a Co-payment cap of $3,000 per policy year, if treatment is sought from EAB’s Panel of Specialists or from Restructured Hospitals. For full information on the benefits and coverage, please refer to the product summary. \n\nFree-look period: You can decide within 21 days from the date of receipt of the Policy document, whether You want to continue with the Policy.  If You do not want to continue, You may cancel this Policy by giving EAB written notice and EAB shall refund the Premiums paid for this Policy. \n\nIf the Policy and Rider terminates because You have not paid the Premium by the end of the Grace Period, You may apply to EAB in writing within 60 days from the date of notice of termination to reinstate Your Policy."
      },
      "limitations": {
        "en": "EAB Shield Plan A with EAB Enhanced Care: 1) Premiums are not guaranteed 2) Premiums increase with age band 3) The additional private insurance coverage portion of EAB Shield premium in excess of the AWL is not payable via Medisave 4) Does not cover medical treatment outside of Singapore, except in the case of emergency (as stated under the additional benefits of your EAB Shield Policy). 5) Pro-ration Factors will apply if Life Assured is Hospitalized in a higher class ward than the Hospital class ward entitled under your policy.\n\nThis plan does not cover Pre-existing condition(s),  treatment for congenital abnormalities such as, but not limited to genetics, hereditary conditions and physical or birth defects from childbirth, and first diagnosed by a Physician or signs and symptoms were first presented within 365 days from the Effective Date or last Reinstatement Date. Details of the general exclusions can be found in the Product Summary.\n\nWith EAB Enhanced Care, any part of a claim in respect of which You have to pay a Co-payment will not be reimbursable. \n  All Benefits under Your EAB Enhanced Care will terminate when any one of the following happens: \n (a) You cancel Your EAB Enhanced Care, after the free look period, by giving EAB 30 days’ notice period, in writing; or \n(b) Your EAB Shield Policy is terminated; or \n (c) No Premium is received from You after the end of the Grace Period. \n Please refer to your product summary for more information about terms and conditions."
      },
      "additionalLimitations": {
        "en": ""
      }
    },
    {
      "planList": ["ASIMSB", "ASCPB"],
      "benefits": {
        "en": "EAB Shield Plan B will reimburse eligible expenses in single-bedded wards in restructured (public) hospitals. With EAB Enhanced Care, the Deductible and Co-insurance portion of your EAB Shield policy will be reduced. The Deductible (limited to a maximum of $1,500) and Co-insurance (limited to 5% of the eligible expenses) are together known as Co-payment. The EAB Enhanced Care has a Co-payment cap of $3,000 per policy year, if treatment is sought from EAB’s Panel of Specialists or from Restructured Hospitals. For full information on the benefits and coverage, please refer to the product summary. \n\n Free-look period: You can decide within 21 days from the date of receipt of the Policy document, whether You want to continue with the Policy. If You do not want to continue, You may cancel this Policy by giving EAB written notice and EAB shall refund the Premiums paid for this Policy. \n\nIf the Policy and Rider terminates because You have not paid the Premium by the end of the Grace Period, You may apply to EAB in writing within 60 days from the date of notice of termination to reinstate Your Policy."
      },
      "limitations": {
        "en": "EAB Shield Plan B with EAB Enhanced Care: 1) Premiums are not guaranteed 2) Premiums increase with age band 3) The additional private insurance coverage portion of EAB Shield premium in excess of the AWL is not payable via Medisave 4) Does not cover medical treatment outside of Singapore, except in the case of emergency (as stated under the additional benefits of your EAB Shield Policy). 5) Pro-ration Factors will apply if Life Assured is Hospitalized in a higher class ward than the Hospital class ward entitled under your policy. \n\n This plan does not cover Pre-existing condition(s), treatment for congenital abnormalities such as, but not limited to genetics, hereditary conditions and physical or birth defects from childbirth, and first diagnosed by a Physician or signs and symptoms were first presented within 365 days from the Effective Date or last Reinstatement Date. Details of the general exclusions can be found in the Product Summary. \n\nWith EAB Enhanced Care, any part of a claim in respect of which You have to pay a Co-payment will not be reimbursable. \n\n All Benefits under Your EAB Enhanced Care will terminate when any one of the following happens:\n(a) You cancel Your EAB Enhanced Care, after the free look period, by giving EAB 30 days’ notice period, in writing; or \n(b) Your EAB Shield Policy is terminated; or\n(c) No Premium is received from You after the end of the Grace Period.\nPlease refer to your product summary for more information about terms and conditions."
      },
      "additionalLimitations": {
        "en": ""
      }
    },
    {
      "planList": ["ASIMSC", "ASCPC"],
      "benefits": {
        "en": "EAB Shield Standard Plan will reimburse eligible expenses in Class B1 wards and below in restructured (public) hospitals. With EAB Enhanced Care, the Deductible and Co-insurance portion of your EAB Shield policy will be reduced. The Deductible (limited to a maximum of $1,500) and Co-insurance (limited to 5% of the eligible expenses) are together known as Co-payment. The EAB Enhanced Care has a Co-payment cap of $3,000 per policy year, if treatment is sought from EAB’s Panel of Specialists or from Restructured Hospitals. For full information on the benefits and coverage, please refer to the product summary.\n\nFree-look period: You can decide within 21 days from the date of receipt of the Policy whether You want to continue with Your Policy. If You do not want to continue, You may cancel this Policy by giving EAB written notice and EAB shall refund the Premiums paid for this Policy. \n\nIf the Policy and Rider terminates because You have not paid the Premium by the end of the Grace Period, You may apply to EAB in writing within 60 days from the date of notice of termination to reinstate Your Policy."
      },
      "limitations": {
        "en": "EAB Shield Standard Plan with EAB Enhanced Care: 1) Premiums are not guaranteed 2) Premiums increase with age band 3) The additional private insurance coverage portion of EAB Shield premium in excess of the AWL is not payable via Medisave 4) Does not cover medical treatment or Hospitalization outside of Singapore 5) Pro-ration Factors will apply if Life Assured is Hospitalized in a higher class ward than the Hospital class ward entitled under your policy.\n\nThis plan does not cover Treatment for congenital abnormalities such as, but not limited to genetics, hereditary conditions and physical or birth defects from childbirth. Details of the general exclusions can be found in the Product Summary.\n\nWith EAB Enhanced Care, any part of a claim in respect of which You have to pay a Co-payment will not be reimbursable.\nAll Benefits under Your EAB Enhanced Care will terminate when any one of the following happens:\n(a) You cancel Your EAB Enhanced Care, after the free look period, by giving EAB 30 days’ notice period, in writing; or \n(b) Your EAB Shield Policy is terminated; or\n(c) No Premium is received from You after the end of the Grace Period.\nPlease refer to your product summary for more information about terms and conditions."
      },
      "additionalLimitations": {
        "en": ""
      }
    }
  ]
}
