{
    "type": "layout",
  	"formId":"rejectPageTemplate",
    "items": [
        {
            "type": "CARDCONTAINER",
            "items": [
                {
                    "type": "HBOX",
                    "items": [
                        {
                            "id": "rejectReason",
                            "type": "Picker",
                            "title": {
                                "en": "Please select the reason for rejection"
                            },
                            "mandatory": true,
                            "options": [
                                {
                                    "value": "Product Mismatch",
                                    "title": {
                                        "en": "Product Mismatch"
                                    }
                                },
                                {
                                    "value": "Premium & Budget Mismatch",
                                    "title": {
                                        "en": "Premium & Budget Mismatch"
                                    }
                                },
                                {
                                    "value": "Inaccurate Product Feature/limitations",
                                    "title": {
                                        "en": "Inaccurate Product Feature/limitations"
                                    }
                                },
                                {
                                    "value": "others",
                                    "title": {
                                        "en": "Others"
                                    }
                                }
                            ]
                        }
                    ]
                },
                {
                    "type": "TEXTAREA",
                    "id": "rejectComment",
                    "maxLength": 5000,
                    "placeholder": "Please provide your comment",
                    "mandatory": true,
                    "align": "left"
                }
            ]
        }
    ]
}