{
    "id": "reviewPageFAAdminTemplate",
    "items": [
        {
           "type": "CARDCONTAINER",
			"title": {
				"en": "Case Information"
			},
            "items": [
                {
                    "type": "HBOX",
                    "items": [
                        {
                            "type": "READONLY",
                            "id": "proposerName",
                            "emptyValue":"-",
                            "title": "Proposer name",
                            "trigger": {
                                "id": "isShield",
                                "type": "showIfEqual",
                                "value": "true"
                            },
                            "hiddenField": {
                                "type": "skip"
                            }
                        },
                        {
                            "type": "READONLY",
                            "id": "policyId",
                            "emptyValue":"-",
                            "title": "Proposal Number",
                            "trigger": {
                                "id": "isShield",
                                "type": "dynamicCondition",
                                "value": "#1 !== true"
                            }
                        },
                        {
                            "type": "READONLY",
                            "id": "productName",
                            "emptyValue":"-",
                            "title": "Product Name"
                        }
                    ]
                },
                {
                    "type": "table",
                    "fullWidth": true,
                    "id": "policiesMapping",
                    "allowEdit": false,
                    "planDetailLayout": true,
                    "noBottomBorder": true,
                    "zebraRow": true,
                    "thBold": true,
                    "trigger": {
                        "id": "isShield",
                        "type": "showIfEqual",
                        "value": "true"
                    },
                    "style": {
                        "width": "65%"
                    },
                    "items": [
                        {
                            "type": "TEXT",
                            "id": "_empty",
                            "planDetailLayout": true,
                            "title": "",
                            "width": "5%"
                        },
                        {
                            "type": "TEXT",
                            "id": "policyNumber",
                            "left": true,
                            "planDetailLayout": true,
                            "title": "Proposal Number"
                        },
                        {
                            "type": "TEXT",
                            "id": "laName",
                            "left": true,
                            "planDetailLayout": true,
                            "title": "Life Assured"
                        },
                        {
                            "type": "TEXT",
                            "id": "covName",
                            "left": true,
                            "planDetailLayout": true,
                            "title": "Plan Name"
                        }
                    ]
                },
                {
                    "type": "HBOX",
                    "items": [
                        {
                            "type": "READONLY",
                            "id": "agentId",
                            "emptyValue":"-",
                            "title": "Financial Consultant code"
                        },
                        {
                            "type": "READONLY",
                            "id": "agentName",
                            "emptyValue":"-",
                            "title": "Financial Consultant Name"
                        },
                        {
                            "type": "READONLY",
                            "id": "faFirmName",
                            "emptyValue":"-",
                            "title": "FA Firm Name"
                        },
                        {
                            "type": "READONLY",
                            "id": "managerName",
                            "emptyValue":"-",
                            "title": "Manager Name"
                        },
                        {
                            "type": "READONLY",
                            "id": "proposerName",
                            "emptyValue":"-",
                            "title": "Proposer name",
                            "trigger": {
                                "id": "isShield",
                                "type": "dynamicCondition",
                                "value": "#1 !== true"
                            },
                            "hiddenField": {
                                "type": "skip"
                            }
                        },
                        {
                            "type": "READONLY",
                            "id": "lifeAssuredName",
                            "emptyValue":"-",
                            "title": "Life assured name",
                            "trigger": {
                                "id": "isShield",
                                "type": "dynamicCondition",
                                "value": "#1 !== true"
                            }
                        },
                        {
                            "type": "READONLY",
                            "id": "submittedDate",
                            "emptyValue":"-",
                            "title": "Submitted Date",
                            "presentation": "dd/mm/yyyy HH:MM",
                            "subType": "DATEWITHTIME",
                            "trigger": {
                                "id": "inProgressBI,inProgressApp",
                                "type": "dynamicCondition",
                                "value": "#1 === undefined && #2 === undefined"
                            },
                            "hiddenField": {
                                "type": "skip"
                            }
                        },
                        {
                            "type": "READONLY",
                            "id": "lastEditedDate",
                            "emptyValue":"-",
                            "title": "Last Edited",
                            "presentation": "dd/mm/yyyy HH:MM",
                            "subType": "DATEWITHTIME"
                        },
                        {
                            "type": "docAction",
                            "id": "docu",
                            "title": "Documents",
                            "iconName": "description",
                            "subType": "supportingDoc"
                        },
                        {
                            "type": "READONLY",
                            "id": "approveRejectDate",
                            "emptyValue":"-",
                            "title": "Approved / Rejected Date",
                            "presentation": "dd/mm/yyyy HH:MM",
                            "subType": "DATEWITHTIME"
                        }
                    ]
                },
                {
                  "type": "DIVIDER",
                  "trigger": [
                    {
                      "id": "accept",
                      "type": "notEmpty"
                    },
                    {
                      "id": "accept_FAAdmin",
                      "type": "notEmpty"
                    },
                    {
                      "id": "reject",
                      "type": "notEmpty"
                    },
                    {
                      "id": "reject_FAAdmin",
                      "type": "notEmpty"
                    }
                  ]
                },
                {
                  "type": "MULTIPLEDISPLAY",
                  "id": "accept",
                  "headerViewMapping": {
                    "view": "agents",
                    "param": ["approveRejectManagerId"],
                    "fieldValue": "agentName",
                    "mappingTo": "header"
                  },
                  "headerPrefix": "Approval Comment by",
                  "content": "accept.approveComment",
                  "footer": "supervisorApproveRejectDate",
                  "footerType": "DATE",
                  "footerPrefix": "Approved on",
                  "trigger":{
                    "id":"accept",
                    "type": "notEmpty"
                  }
                },
                {
                  "type": "MULTIPLEDISPLAY",
                  "id": "accept_FAAdmin",
                  "headerViewMapping": {
                    "view": "agents",
                    "param": ["approver_FAAdminCode"],
                    "fieldValue": "agentName",
                    "mappingTo": "header"
                  },
                  "headerPrefix": "Approval Comment by",
                  "content": "accept_FAAdmin.approveComment",
                  "footer": "approveRejectDate",
                  "footerType": "DATE",
                  "footerPrefix": "Approved on",
                  "trigger":{
                    "id":"accept_FAAdmin",
                    "type": "notEmpty"
                  }
                },
                {
                  "type": "MULTIPLEDISPLAY",
                  "id": "reject",
                  "headerViewMapping": {
                    "view": "agents",
                    "param": ["approveRejectManagerId"],
                    "fieldValue": "agentName",
                    "mappingTo": "header"
                  },
                  "headerPrefix": "Rejection Comment by",
                  "content": "reject.rejectComment",
                  "footer": "supervisorApproveRejectDate",
                  "footerType": "DATE",
                  "footerPrefix": "Rejected on",
                  "trigger":{
                    "id":"reject",
                    "type": "notEmpty"
                  }
                },
                {
                  "type": "MULTIPLEDISPLAY",
                  "id": "reject_FAAdmin",
                  "headerViewMapping": {
                    "view": "agents",
                    "param": ["approver_FAAdminCode"],
                    "fieldValue": "agentName",
                    "mappingTo": "header"
                  },
                  "headerPrefix": "Rejection Comment by",
                  "content": "reject_FAAdmin.rejectComment",
                  "footer": "approveRejectDate",
                  "footerType": "DATE",
                  "footerPrefix": "Rejected on",
                  "trigger":{
                    "id":"reject_FAAdmin",
                    "type": "notEmpty"
                  }
                }
            ]
        },
        {
            "type": "CARDCONTAINER",
            "title": {
                "en": "Status"
            },
            "items": [
                {
                    "type": "HBOX",
                    "items": [
                        {
                            "type": "READONLY",
                            "id": "approvalStatus",
                            "emptyValue":"-",
                            "title": "Case status",
                            "subType": "APPROVALSTATUS"
                        },
                        {
                            "type": "READONLY",
                            "id": "submittedDate",
                            "subType": "expiryDate",
                            "stampedValue": "expiredDate",
                            "mapping": {
                              "mappingKey": "approvalStatus",
                              "mappingValue": ["A", "R", "inProgressApp"],
                              "displayValue": ""
                            },
                            "emptyValue":"-",
                            "title": "Case will be Expired on"
                        }
                    ]
                },{
                    "id": "reasonAndStatus",
                    "type": "commentReason",
                    "items" : [{
                        "id": "approvalStatus",
                        "type": "Picker",
                        "title": {
                            "en": "Reason On Hold"
                        },
                        "options": [
                            {
                                "value": "PDocFAF",
                                "title": {
                                    "en": "Pending document"
                                }
                            },
                            {
                                "value": "PDisFAF",
                                "title": {
                                    "en": "Pending discussion"
                                }
                            }
                        ]
                    },
                    {
                        "id": "commentTextArea",
                        "type": "TextArea",
                        "max": 1000
                    },
                    {
                        "id": "commentBtn",
                        "type": "button",
                        "label": "Save"
                    }]
                },
                {
                    "id": "comment",
                    "type": "commentBox",
                    "max": 1000
                }
            ]
        }
    ]
}
