{
    "type": "layout",
  	"formId":"reviewPage_selectedClient_Template",
    "items": [
        {
            "type": "CARDCONTAINER",
            "items": [
                {
                    "type": "HBOX",
                    "items": [
                        {
                            "type": "BLOCK",
                            "title": "Selected Client",
                            "items": [
                                {
                                    "id": "checkedWithClient",
                                    "type": "checkbox",
                                    "title": "I have checked with the selected client on his/her understanding of the plans recommended by the Financial Consultant.",
                                    "disabled": true
                                },
                                {
                                    "type": "HBOX",
                                    "items": [
                                        {
                                            "id": "callDate",
                                            "type": "READONLY",
                                            "emptyValue":"-",
                                            "title": "Call Date"
                                        },
                                        {
                                            "id": "contactPerson",
                                            "type": "READONLY",
                                            "title": "Name of the person contacted",
                                            "emptyValue":"-"
                                        },
                                        {
                                            "type": "HBOX",
                                            "title": {
                                                "en": "Mobile No."
                                            },
                                            "shadow": true,
                                            "key": "mobileNoSection",
                                            "items": [
                                                {
                                                    "id": "mobileCountryCode",
                                                    "type": "READONLY",
                                                    "emptyValue":"-"
                                                },
                                                {
                                                    "id": "mobileNo",
                                                    "type": "READONLY",
                                                    "emptyValue":"-"
                                                }
                                            ]
                                        }
                                    ],
                                    "trigger": {
                                        "id": "checkedWithClient",
                                        "type": "showIfEqual",
                                        "value": "Y"
                                    }
                                },
                                {
                                    "type": "READONLY",
                                    "id": "otherComment",
                                    "title": "Other Comments",
                                    "emptyValue":"-",
                                     "trigger": {
                                        "id": "checkedWithClient",
                                        "type": "showIfEqual",
                                        "value": "Y"
                                    }
                                }
                            ]
                        }
                    ]
                }
            ]
        }
    ]
}
