{
  "sessionSecret" : "7W1M6ufe5feoFIxZ",
  "couchbase_encrytion_key" : "pkp1BeaRdyYE8PrX",
  "quotationIdEncryptionKey": "t1vK729zUB1PiOFo",
  "output": {},
  "useDocCache": true,
  "enableRSA": true,
  "audDocRecordLimit": 100,
  "docCacheTimeout": 60000,
  "tempFolder": "temp",
  "signdoc": {
    "pdfTimeout"  : 1800000,
    "secretKey"   : "HiIJsJcxtJc2LknO"
  },
  "disableSMS": false,
  "signExpireWarningDay": 1,
  "signExpireDay": 2,
  "after_pEAppSigned_days": 1,
  "EAPPROVAL_EXPIRY_DATE_FR_SUBMISSION": 14,
  "SECONDARY_PROXY_ASSIGNMENT_DAY": 7,
  "debugMode": false,
  "crossAgeDay": 14,
  "SUPPORT_DOCUMENTS_MAX_FILE_SIZE_IN_BYTE": 10485760,
  "fairBI": {
    "fromTime": "2018-06-30 23:55:00",
    "toTime": "2018-07-01 00:05:00",
    "scheduleCron": "0 0 * 5-7 *",
    "handleCovCode": {
      "SAV": true,
      "IND": true,
      "BAA": true,
      "ASIM": false,
      "FPX": true,
      "FSX": true,
      "TPX": true,
      "TPPX": true,
      "AWT": true,
      "PUL": true,
      "LMP": true,
      "ESP": true,
      "RHP": true,
      "HIM": true,
      "HER": true
    }
  },
  "biReleaseVersion": "11.0"
}
