{
    "type": "template",
    "version": "1.0",
    "content": {
        "en": "<p>By downloading, accessing and using the EAB DEMO application (App) provided by us, EAB Insurance Private Limited (EAB), you agree to be bound by and comply with the terms and conditions (Terms) contained herein and as revised from time to time.</p><span style='font-weight:bold;'>1. Use of App</span><p>You shall not:</p><ol><li style='list-style-type: lower-roman; padding-bottom:8px'> use the App in any illegal or unauthorised manner or in a manner which promotes or encourages illegal activity including (without limitation) infringement of any intellectual property right; or</li><li style='list-style-type: lower-roman; padding-bottom:8px;'> copy, edit, modify, adapt, translate, reproduce, re-format whatsoever any part of the App; or</li><li style='list-style-type: lower-roman;'>attempt to gain unauthorised access to the App or any networks, servers or computer systems connected to the App.</li></ol><p>EAB is not compelled to provide the App and is entitled, with such notice as it deems appropriate, to vary, limit or discontinue the App at its sole discretion.</p><p>EAB does not warrant the truth, accuracy, adequacy or completeness of the contents of the App or that it is entirely error free and expressly disclaims any loss or damage arising from or in connection with the use of or inability to access all or any part of the App.</p><span style='font-weight:bold;'>2. User Name & Password</span><p>EAB will issue, on such terms and conditions as EAB deems appropriate, a User Name and Password by any means selected by EAB, for you to access and use the App.</p><p>EAB may at its sole discretion refuse access, revoke, or otherwise change at any time your access to the App.</p><p>You are responsible for the security, confidentiality and proper use of the User Name and Password issued to you. You shall not share your Username and Password, allow any unauthorised access to your account or do anything that may jeopardise the security of your account.</p><span style='font-weight:bold;'>3. Confidentiality and Data Protection</span><p>The security and confidentiality must be maintained at all times in regards to all material provided to you, collected and used by you as part of the App.  Such material, including but not limited to any customer related data, must not be disclosed to any third party while you are an Adviser as well as after you cease to be an Adviser.</p><span style='font-weight:bold;'>4. Intellectual Property</span><p>The App and all material contained on, in or available through the App belongs to EAB.</p><p>You are prohibited from using or referring to EAB’s or any EAB group entity’s name, brand or trademark or any other intellectual property, either directly or indirectly, in any manner without the express written consent of EAB.</p><p>Without limiting the generality of the paragraph above, the Customer Data compilation in the App is the property of EAB and the use by you of this data other than to access and utilize the functionality provided in EAB DEMO, in relation to EAB products, is strictly prohibited.</p><span style='font-weight:bold;'>5. Variation</span><p>We may, in whole or in part, at any time whether with or without notice, modify or change the Terms.<br/>The Terms shall in no way limit your existing confidentiality and other contractual obligations to EAB</p><span style='font-weight:bold;'>6. Indemnity</span><p>You agree to indemnify us for all losses, damages, costs (including costs on an indemnity basis) and all other expenses that we may incur as a result of any breach of the Terms or in connection with your use of the App.</p><span style='font-weight:bold;'>7. Jurisdiction and Governing Law</span><p>The Terms shall be interpreted and governed by the laws of the Republic of Singapore and you and agree to submit to the non-exclusive jurisdiction of the Singapore courts with respect to any legal proceedings, which may be initiated in connection with the Terms.</p>"
    }
}