{
    "id": "WorkbenchTemplate",
    "items": [
        {
            "type": "CARDCONTAINER",
            "searchMenu": true,
            "items": [
                {
                    "id": "displayCaseNo",
                    "type": "textarea",
                    "wordLimit": 20,
                    "rows": 1,
                    "rowsMax": 1,
                    "placeholder": "Case No.",
                    "whiteBackground": true,
                    "multiLine": false,
                    "disableErrorContainer": true
                },
                {
                    "id": "customerICNo",
                    "type": "textarea",
                    "wordLimit": 20,
                    "rows": 1,
                    "rowsMax": 1,
                    "placeholder":  "Customer IC No.",
                    "whiteBackground": true,
                    "multiLine": false,
                    "disableErrorContainer": true
                },
                {
                    "id": "customerName",
                    "type": "textarea",
                    "wordLimit": 20,
                    "rows": 1,
                    "rowsMax": 1,
                    "placeholder": "Proposer Name",
                    "whiteBackground": true,
                    "multiLine": false,
                    "disableErrorContainer": true
                },
                {
                    "id": "product",
                    "type": "textarea",
                    "wordLimit": 20,
                    "rows": 1,
                    "rowsMax": 1,
                    "placeholder":  "Product Name",
                    "whiteBackground": true,
                    "multiLine": false,
                    "disableErrorContainer": true
                },
                {
                    "id": "agentName",
                    "type": "textarea",
                    "wordLimit": 20,
                    "rows": 1,
                    "rowsMax": 1,
                    "placeholder":   "Agent Name",
                    "whiteBackground": true,
                    "multiLine": false,
                    "disableErrorContainer": true
                },
                {
                    "id": "searchFilter_supervisorName",
                    "type": "textarea",
                    "wordLimit": 20,
                    "rows": 1,
                    "rowsMax": 1,
                    "placeholder":   "Supervisor Name",
                    "whiteBackground": true,
                    "multiLine": false,
                    "disableErrorContainer": true
                },
                {
                    "id": "searchFilter_directorName",
                    "type": "textarea",
                    "wordLimit": 20,
                    "rows": 1,
                    "rowsMax": 1,
                    "placeholder":  "Director Name",
                    "whiteBackground": true,
                    "multiLine": false,
                    "disableErrorContainer": true
                },
                {
                    "id": "findCase",
                    "type": "button",
                    "action": "findCasesByFilter",
                    "title": "Find Case",
                    "style": {
                        "height": "40px"
                    }
                },
                {
                    "id": "statusSectionName",
                    "type": "StatusSectionName",
                    "name": "Case Status"
                },
                {
                    "id": "approvalStatus",
                    "type": "checkboxGroup",
                    "mode": "P",
                    "options": [
                        {
                            "title": {
                                "en": "All"
                            },
                            "value": "all"
                        }, {
                            "title": {
                                "en": "In progress PI"
                            },
                            "value": "inProgressBI"
                        }, {
                            "title": {
                                "en": "In progress e-application"
                            },
                            "value": "inProgressApp"
                        }, {
                            "title": {
                                "en": "Case approved"
                            },
                            "value": "A"
                        },  {
                            "title": {
                                "en": "Case rejected"
                            },
                            "value": "R"
                        },  {
                            "title": {
                                "en": "Case expired"
                            },
                            "value": "E"
                        },  {
                            "title": {
                                "en": "Pending supervisor approval"
                            },
                            "value": "SUBMITTED"
                        },  {
                            "title": {
                                "en": "Pending documents"
                            },
                            "value": "PDoc"
                        },  {
                            "title": {
                                "en": "Pending discussion"
                            },
                            "value": "PDis"
                        },  {
                            "title": {
                                "en": "Pending FA firm approval"
                            },
                            "value": "PFAFA"
                        }
                    ]
                },
                {
                    "type": "SEARCHMENUSECTION",
                    "title":   {
                        "en": "LAST EDITED"
                    },
                    "items": [
                        {
                            "type": "HBOX",
                            "items": [
                                {
                                    "id": "lastEdit_START_DATE",
                                    "type": "datePicker",
                                    "subType": "date",
                                    "hasMargin": true,
                                    "placeholder": "Start Date",
                                    "title": {
                                        "en": "Start Date"
                                    },
                                    "shadowLabel": true
                                },
                                {
                                    "id": "lastEdit_END_DATE",
                                    "type": "datePicker",
                                    "subType": "date",
                                    "hasMargin": true,
                                    "placeholder": "End Date",
                                    "title": {
                                        "en": "End Date"
                                    },
                                    "shadowLabel": true
                                }
                            ]
                        }
                    ]
                },
                {
                    "type": "SEARCHMENUSECTION",
                    "title":   {
                        "en": "DATE SUBMITTED"
                    },
                    "items": [
                        {
                            "type": "HBOX",
                            "items": [
                                {
                                    "id": "dateSubmitted_START_DATE",
                                    "type": "datePicker",
                                    "subType": "date",
                                    "hasMargin": true,
                                    "placeholder": "Start Date",
                                    "title": {
                                        "en": "Start Date"
                                    },
                                    "shadowLabel": true
                                },
                                {
                                    "id": "dateSubmitted_END_DATE",
                                    "type": "datePicker",
                                    "subType": "date",
                                    "hasMargin": true,
                                    "placeholder": "End Date",
                                    "title": {
                                        "en": "End Date"
                                    },
                                    "shadowLabel": true
                                }
                            ]
                        }
                    ]
                },
                {
                    "type": "SEARCHMENUSECTION",
                    "title":   {
                        "en": "DATE APPROVED/ REJECTED"
                    },
                    "items": [
                        {
                            "type": "HBOX",
                            "items": [
                                {
                                    "id": "dateAppRej_START_DATE",
                                    "type": "datePicker",
                                    "subType": "date",
                                    "hasMargin": true,
                                    "placeholder": "Start Date",
                                    "title": {
                                        "en": "Start Date"
                                    },
                                    "shadowLabel": true
                                },
                                {
                                    "id": "dateAppRej_END_DATE",
                                    "type": "datePicker",
                                    "subType": "date",
                                    "hasMargin": true,
                                    "placeholder": "End Date",
                                    "title": {
                                        "en": "End Date"
                                    },
                                    "shadowLabel": true
                                }
                            ]
                        }
                    ]
                }
            ]
        }
    ]
}
