{
	"TYPE": "agent",
	"compCode": "AG",
	"agentCode": "199944",
	"role": "02",
	"name": "F5655869L BROKER",
	"profileId": "F5655869L",
	"channel": "BROKER",
	"createDate": "7/1/2017",
	"lastUpdateDate": "7/14/2017",
	"company": "IFA Singapore",
	"tel": "99199944",
	"mobile": "66199944",
	"email": "clement.chew@EAB.com.sg",
	"position": "Financial Advisor",
	"manager": "F5655869L BROKER(M)",
	"managerCode": "999999",
	"achievements": "EAB Signature, MDRT, SUPER MDRT",
	"authorised": "M9A, M9, M5, HI, M8, M8A"
}