{
	"TYPE": "agent",
	"compCode": "AG",
	"agentCode": "001125",
	"role": "02",
	"name": "G2801182L AGENCY",
	"profileId": "G2801182L",
	"channel": "AGENCY",
	"createDate": "7/1/2017",
	"lastUpdateDate": "7/14/2017",
	"company": "EAB Insurance Pte Ltd (Co. Reg. No. 199903512M)",
	"tel": "99001125",
	"mobile": "66001125",
	"email": "saakshi.jham@EAB.com.sg",
	"position": "Agent",
	"manager": "G2801182L AGENCY(M)",
	"managerCode": "100002",
	"achievements": "EAB Signature",
	"authorised": "M9A, M9, M5, HI, M8, M8A"
}