{
	"TYPE": "agent",
	"compCode": "AG",
	"agentCode": "199977",
	"role": "02",
	"name": "G6220329M SYNERGY",
	"profileId": "G6220329M",
	"channel": "SYNERGY",
	"createDate": "7/1/2017",
	"lastUpdateDate": "7/14/2017",
	"company": "Synergy Company",
	"tel": "99199977",
	"mobile": "66199977",
	"email": "hongxu.shao@EAB.com.sg",
	"position": "Financial Advisor",
	"manager": "G6220329M SYNERGY(M)",
	"managerCode": "000224",
	"achievements": "EAB Signature, MDRT, SUPER MDRT",
	"authorised": "M9A, M9, M5, HI, M8"
}