{
	"TYPE": "agent",
	"compCode": "AG",
	"agentCode": "100033",
	"role": "02",
	"name": "S3195577J FUSION",
	"profileId": "S3195577J",
	"channel": "FUSION",
	"createDate": "7/1/2017",
	"lastUpdateDate": "7/14/2017",
	"company": "I am JPK",
	"tel": "99100033",
	"mobile": "66100033",
	"email": "hongxu.shao@EAB.com.sg",
	"position": "Agent",
	"manager": "S3195577J FUSION(M)",
	"managerCode": "888888",
	"achievements": "MDRT, EAB ACHIEVEMENT",
	"authorised": "M9A, M9, M5, HI, M8, M8A, IFAST"
}