{
	"TYPE": "agent",
	"compCode": "AG",
	"agentCode": "422334",
	"role": "02",
	"name": "S6302703E DIRECT",
	"profileId": "S6302703E",
	"channel": "DIRECT",
	"createDate": "7/1/2017",
	"lastUpdateDate": "7/14/2017",
	"company": "EAB Direct",
	"tel": "99422334",
	"mobile": "66422334",
	"email": "clement.chew@EAB.com.sg",
	"position": "Agent",
	"manager": "S6302703E DIRECT(M)",
	"managerCode": "900001",
	"achievements": "MDRT",
	"authorised": "M9A, M9, M5"
}