{
	"TYPE": "agent",
	"compCode": "AG",
	"agentCode": "555445",
	"role": "02",
	"name": "T3807927B DIRECT",
	"profileId": "T3807927B",
	"channel": "DIRECT",
	"createDate": "7/1/2017",
	"lastUpdateDate": "7/14/2017",
	"company": "EAB Direct",
	"tel": "99555445",
	"mobile": "66555445",
	"email": "clement.chew@EAB.com.sg",
	"position": "Agent",
	"manager": "T3807927B DIRECT(M)",
	"managerCode": "900002",
	"achievements": "MDRT",
	"authorised": "M9A, M9"
}