{
	"TYPE": "agent",
	"compCode": "AG",
	"agentCode": "444445",
	"role": "02",
	"name": "T3807926A DIRECT",
	"profileId": "T3807926A",
	"channel": "DIRECT",
	"createDate": "7/1/2017",
	"lastUpdateDate": "7/14/2017",
	"company": "EAB Direct",
	"tel": "99444445",
	"mobile": "66444445",
	"email": "reetika.goenka@EAB.com.sg",
	"position": "Agent",
	"manager": "T3807926A DIRECT(M)",
	"managerCode": "900002",
	"achievements": "MDRT",
	"authorised": "M9A, M9"
}