{
	"TYPE": "agent",
	"compCode": "AG",
	"agentCode": "000001",
	"role": "02",
	"name": "T7893589D IAM / JPK",
	"profileId": "",
	"channel": "FUSION",
	"createDate": "7/1/2017",
	"lastUpdateDate": "7/14/2017",
	"company": "I am JPK",
	"tel": "99000001",
	"mobile": "66000001",
	"email": "@eabsystems.com",
	"position": "Agent",
	"manager": "T7893589D IAM / JPK(M)",
	"managerCode": "888888",
	"achievements": "MDRT, EAB ACHIEVEMENT",
	"authorised": "M9A"
}